Saúde Bucal - material suplementar
…
cobertura_sb <-
  read_excel("~/GitHub/saude_bucal/01_dados/cobertura sb.xlsx",
            sheet = "Cobertura") |>  
  mutate(ibge = substr(ibge, 1, 6))

# apresentando dados

cobertura_sb |>
  select(-ibge,
         -id_faixa,
         -li_cobertura, 
         -ls_cobertura) 

# A tibble: 512 × 4
   municipio   procedimento   faixa_etaria cobertura
   <chr>       <chr>          <chr>            <dbl>
 1 Porto Velho Atenção Básica 0 a 14 anos      0.69 
 2 Porto Velho Endodontia     0 a 14 anos      0.074
 3 Porto Velho Periodontia    0 a 14 anos      0    
 4 Porto Velho Prótese        0 a 14 anos      0    
 5 Rio Branco  Atenção Básica 0 a 14 anos      0.625
 6 Rio Branco  Endodontia     0 a 14 anos      0.071
 7 Rio Branco  Periodontia    0 a 14 anos      0    
 8 Rio Branco  Prótese        0 a 14 anos      0    
 9 Manaus      Atenção Básica 0 a 14 anos      0.661
10 Manaus      Endodontia     0 a 14 anos      0.138
# ℹ 502 more rows
…
necessidades_servicos_br |> 
  select(municipio, 
         procedimento, 
         faixa, 
         nec_servicos) 

# A tibble: 92,304 × 4
   municipio       procedimento   faixa          nec_servicos
   <chr>           <chr>          <fct>                 <dbl>
 1 Brasília        Atenção Básica de 0 a 14 anos     287239. 
 2 Brasília        Endodontia     de 0 a 14 anos        996. 
 3 Brasília        Periodontia    de 0 a 14 anos          0  
 4 Brasília        Prótese        de 0 a 14 anos          0  
 5 Goiânia         Atenção Básica de 0 a 14 anos    1283387. 
 6 Goiânia         Endodontia     de 0 a 14 anos        852. 
 7 Goiânia         Periodontia    de 0 a 14 anos          0  
 8 Goiânia         Prótese        de 0 a 14 anos          0  
 9 Abadia de Goiás Atenção Básica de 0 a 14 anos       9455. 
10 Abadia de Goiás Endodontia     de 0 a 14 anos         93.4
# ℹ 92,294 more rows
…
`summarise()` has grouped output by 'ibge', 'municipio', 'nivel',
'cod_municipiodv'. You can override using the `.groups` argument.

necessidades_prof_br |>
  ungroup() |> 
  select(municipio, 
         nivel, 
         necessidade)

# A tibble: 11,140 × 3
   municipio       nivel necessidade
   <chr>           <chr>       <dbl>
 1 Porto Velho     AES         57.6 
 2 Porto Velho     APS        431.  
 3 Rio Branco      AES         69.6 
 4 Rio Branco      APS        221.  
 5 Abaetetuba      AES         26.6 
 6 Abaetetuba      APS        160.  
 7 Abel Figueiredo AES          1.08
 8 Abel Figueiredo APS          5.98
 9 Abreulândia     AES          0.98
10 Abreulândia     APS          4.91
# ℹ 11,130 more rows
…
cd_oferta_vs_demanda_br |> 
    select(-cod_mun_loc,
           -cod_municipiodv)

# A tibble: 11,140 × 8
# Groups:   ibge, municipio, nivel, cod_municipiodv [11,140]
   cod_municipiodv ibge   municipio nivel necessidade FTE_40_linha    rr      ra
   <chr>           <chr>  <chr>     <chr>       <dbl>        <dbl> <dbl>   <dbl>
 1 110020          110020 Porto Ve… AES         57.6         30.4   52.8  -27.2 
 2 110020          110020 Porto Ve… APS        431.          62.9   14.6 -368.  
 3 120040          120040 Rio Bran… AES         69.6         31.5   45.2  -38.2 
 4 120040          120040 Rio Bran… APS        221.          39.2   17.8 -182.  
 5 150010          130000 Abaetetu… AES         26.6          3.68  13.8  -23.0 
 6 150010          130000 Abaetetu… APS        160.          21.8   13.6 -138.  
 7 150013          130000 Abel Fig… AES          1.08         0      0     -1.08
 8 150013          130000 Abel Fig… APS          5.98         1.28  21.4   -4.7 
 9 170025          130000 Abreulân… AES          0.98         0      0     -0.98
10 170025          130000 Abreulân… APS          4.91         1.6   32.6   -3.31
# ℹ 11,130 more rows
…
cd_oferta_vs_demanda_br_tsb_asb |> 
  ungroup() |> 
  select(-ibge,
         -cod_municipiodv,
         -cod_mun_loc)

# A tibble: 11,140 × 6
   municipio       nivel necessidade FTE_40_linha    rr      ra
   <chr>           <chr>       <dbl>        <dbl> <dbl>   <dbl>
 1 Porto Velho     AES         57.6         17.0   29.4  -40.6 
 2 Porto Velho     APS        431.          62.9   14.6 -368.  
 3 Rio Branco      AES         69.6         18.2   26.1  -51.5 
 4 Rio Branco      APS        221.          44.3   20.1 -176.  
 5 Abaetetuba      AES         26.6          1.76   6.6  -24.9 
 6 Abaetetuba      APS        160.          18.1   11.3 -142.  
 7 Abel Figueiredo AES          1.08         0      0     -1.08
 8 Abel Figueiredo APS          5.98         1.47  24.6   -4.51
 9 Abreulândia     AES          0.98         0      0     -0.98
10 Abreulândia     APS          4.91         1.28  26.1   -3.63
# ℹ 11,130 more rows
…
