Saúde Bucal - material suplementar
…
cobertura_sb <-
  read_excel("~/GitHub/saude_bucal/01_dados/cobertura sb.xlsx",
            sheet = "Cobertura") |>  
  mutate(ibge = substr(ibge, 1, 6))

# apresentando dados

cobertura_sb |>
  select(-ibge,
         -id_faixa,
         -li_cobertura, 
         -ls_cobertura)

# A tibble: 512 × 4
   municipio   procedimento   faixa_etaria cobertura
   <chr>       <chr>          <chr>            <dbl>
 1 Porto Velho Atenção Básica 0 a 14 anos      0.69 
 2 Porto Velho Endodontia     0 a 14 anos      0.074
 3 Porto Velho Periodontia    0 a 14 anos      0    
 4 Porto Velho Prótese        0 a 14 anos      0    
 5 Rio Branco  Atenção Básica 0 a 14 anos      0.625
 6 Rio Branco  Endodontia     0 a 14 anos      0.071
 7 Rio Branco  Periodontia    0 a 14 anos      0    
 8 Rio Branco  Prótese        0 a 14 anos      0    
 9 Manaus      Atenção Básica 0 a 14 anos      0.661
10 Manaus      Endodontia     0 a 14 anos      0.138
# ℹ 502 more rows
…
necessidades_prof_br |>
  ungroup() |> 
  select(municipio, 
         nivel, 
         necessidade,
         necessidade_sus) 

# A tibble: 11,140 × 4
   municipio       nivel necessidade necessidade_sus
   <chr>           <chr>       <dbl>           <dbl>
 1 Porto Velho     AES        138.            113.  
 2 Porto Velho     APS        431.            369.  
 3 Rio Branco      AES        166.            158.  
 4 Rio Branco      APS        221.            212.  
 5 Abaetetuba      AES         62.7            58.9 
 6 Abaetetuba      APS        160.            152.  
 7 Abel Figueiredo AES          2.54            2.2 
 8 Abel Figueiredo APS          5.98            5.23
 9 Abreulândia     AES          2.3             2.09
10 Abreulândia     APS          4.91            4.63
# ℹ 11,130 more rows
…
cd_oferta_vs_demanda_br |> 
    select(-cod_mun_loc,
           -cod_municipiodv)

Adding missing grouping variables: `cod_municipiodv`

# A tibble: 11,140 × 11
# Groups:   ibge, municipio, nivel, cod_municipiodv [11,140]
   cod_municipiodv ibge   municipio       nivel necessidade necessidade_sus
   <chr>           <chr>  <chr>           <chr>       <dbl>           <dbl>
 1 110020          110020 Porto Velho     AES        138.            113.  
 2 110020          110020 Porto Velho     APS        431.            369.  
 3 120040          120040 Rio Branco      AES        166.            158.  
 4 120040          120040 Rio Branco      APS        221.            212.  
 5 150010          130000 Abaetetuba      AES         62.7            58.9 
 6 150010          130000 Abaetetuba      APS        160.            152.  
 7 150013          130000 Abel Figueiredo AES          2.54            2.2 
 8 150013          130000 Abel Figueiredo APS          5.98            5.23
 9 170025          130000 Abreulândia     AES          2.3             2.09
10 170025          130000 Abreulândia     APS          4.91            4.63
# ℹ 11,130 more rows
# ℹ 5 more variables: FTE_40_linha <dbl>, rr <dbl>, ra <dbl>, rr_s <dbl>,
#   ra_s <dbl>
…
